<?xml version="1.0"?>
<kml>
      <Document>
            <name>PFPS Google Earth Tool Demo Project</name>
            <Snippet>PFPS Google Earth Tool .KML</Snippet>
            <description>Name: PFPS Google Earth Tool Demo Project
Date: 1/22/2008 12:00:00 AM
Classification: 

Author: 
Organization: 
Phone: 
E-mail: 
Website: 

Description: </description>
            <Style id="White Route">
                  <IconStyle>
                        <Icon>
                              <href>http://maps.google.com/mapfiles/kml/shapes/donut.png</href>
                        </Icon>
                        <scale>0.8</scale>
                        <color>ffffffff</color>
                  </IconStyle>
                  <LineStyle>
                        <color>ffffffff</color>
                        <width>1</width>
                  </LineStyle>
                  <PolyStyle>
                        <color>7f006400</color>
                        <fill>1</fill>
                  </PolyStyle>
                  <LabelStyle>
                        <color>ffffffff</color>
                        <scale>0.8</scale>
                  </LabelStyle>
            </Style>
            <Style id="Red Airspace/Corridor">
                  <IconStyle>
                        <Icon>
                              <href />
                        </Icon>
                        <scale>0.8</scale>
                        <color>ffffffff</color>
                  </IconStyle>
                  <LineStyle>
                        <color>ff0000ff</color>
                        <width>1</width>
                  </LineStyle>
                  <PolyStyle>
                        <color>7f00008b</color>
                        <fill>1</fill>
                  </PolyStyle>
                  <LabelStyle>
                        <color>ffffffff</color>
                        <scale>0.8</scale>
                  </LabelStyle>
            </Style>
            <Style id="Blue Airspace/Corridor">
                  <IconStyle>
                        <Icon>
                              <href />
                        </Icon>
                        <scale>0.8</scale>
                        <color>ffffffff</color>
                  </IconStyle>
                  <LineStyle>
                        <color>ffff0000</color>
                        <width>1</width>
                  </LineStyle>
                  <PolyStyle>
                        <color>7f8b0000</color>
                        <fill>1</fill>
                  </PolyStyle>
                  <LabelStyle>
                        <color>ffffffff</color>
                        <scale>0.8</scale>
                  </LabelStyle>
            </Style>
            <Style id="Green Airspace/Corridor">
                  <IconStyle>
                        <Icon>
                              <href />
                        </Icon>
                        <scale>0.8</scale>
                        <color>ffffffff</color>
                  </IconStyle>
                  <LineStyle>
                        <color>ff008000</color>
                        <width>1</width>
                  </LineStyle>
                  <PolyStyle>
                        <color>7f006400</color>
                        <fill>1</fill>
                  </PolyStyle>
                  <LabelStyle>
                        <color>ffffffff</color>
                        <scale>0.8</scale>
                  </LabelStyle>
            </Style>
            <Style id="ICAO Tower">
                  <IconStyle>
                        <Icon>
                              <href>C:\Documents and Settings\mark.jacobsen\My Documents\Visual Studio 2005\Projects\PFPS Google Earth Tool v0.6.0\GET.App\bin\Debug\Icons\ICAO\ICAO-HIGH.png</href>
                        </Icon>
                        <scale>1</scale>
                        <color>ffffffff</color>
                  </IconStyle>
                  <LineStyle>
                        <color>ff008000</color>
                        <width>1</width>
                  </LineStyle>
                  <PolyStyle>
                        <color>7f006400</color>
                        <fill>1</fill>
                  </PolyStyle>
                  <LabelStyle>
                        <color>ff0000ff</color>
                        <scale>1</scale>
                  </LabelStyle>
            </Style>
            <Folder>
                  <name>Routes</name>
                  <Snippet />
                  <description />
                  <visibility>1</visibility>
                  <Folder>
                        <name>VR413</name>
                        <description />
                        <Snippet>Low-level Route</Snippet>
                        <visibility>1</visibility>
                        <Placemark>
                              <name>Complete Route</name>
                              <styleUrl>#White Route</styleUrl>
                              <LineString id="VR413 - Full Path">
                                    <extrude>0</extrude>
                                    <altitudeMode>clampToGround</altitudeMode>
                                    <tessellate>1</tessellate>
                                    <coordinates>-104.916667,39.116667,152.399999768352 -105.466667,38.9,152.399999768352 -105.866667,38.483334,152.399999768352 -106.033333,38.299999,152.399999768352 -106.011809,37.929232,152.399999768352 -105.815536,37.833063,152.399999768352 -105.596667,37.488333,152.399999768352 -105.2,37.6,152.399999768352 -104.95,37.733334,152.399999768352 -104.616667,37.933334,152.399999768352 </coordinates>
                              </LineString>
                        </Placemark>
                        <Placemark>
                              <name>VR413 A</name>
                              <Snippet />
                              <description />
                              <visibility>1</visibility>
                              <styleUrl>#White Route</styleUrl>
                              <Point id="VR413 A">
                                    <extrude>0</extrude>
                                    <altitudeMode>relativeToGround</altitudeMode>
                                    <coordinates>-104.916667,39.116667,152.399999768352 </coordinates>
                              </Point>
                        </Placemark>
                        <Placemark>
                              <name>VR413 B</name>
                              <Snippet />
                              <description />
                              <visibility>1</visibility>
                              <styleUrl>#White Route</styleUrl>
                              <Point id="VR413 B">
                                    <extrude>0</extrude>
                                    <altitudeMode>relativeToGround</altitudeMode>
                                    <coordinates>-105.466667,38.9,152.399999768352 </coordinates>
                              </Point>
                        </Placemark>
                        <Placemark>
                              <name>VR413 C</name>
                              <Snippet />
                              <description />
                              <visibility>1</visibility>
                              <styleUrl>#White Route</styleUrl>
                              <Point id="VR413 C">
                                    <extrude>0</extrude>
                                    <altitudeMode>relativeToGround</altitudeMode>
                                    <coordinates>-105.866667,38.483334,152.399999768352 </coordinates>
                              </Point>
                        </Placemark>
                        <Placemark>
                              <name>VR413 D</name>
                              <Snippet />
                              <description />
                              <visibility>1</visibility>
                              <styleUrl>#White Route</styleUrl>
                              <Point id="VR413 D">
                                    <extrude>0</extrude>
                                    <altitudeMode>relativeToGround</altitudeMode>
                                    <coordinates>-106.033333,38.299999,152.399999768352 </coordinates>
                              </Point>
                        </Placemark>
                        <Placemark>
                              <name>VR413 D1</name>
                              <Snippet />
                              <description />
                              <visibility>1</visibility>
                              <styleUrl>#White Route</styleUrl>
                              <Point id="VR413 D1">
                                    <extrude>0</extrude>
                                    <altitudeMode>relativeToGround</altitudeMode>
                                    <coordinates>-106.011809,37.929232,152.399999768352 </coordinates>
                              </Point>
                        </Placemark>
                        <Placemark>
                              <name>VR413 D2</name>
                              <Snippet />
                              <description />
                              <visibility>1</visibility>
                              <styleUrl>#White Route</styleUrl>
                              <Point id="VR413 D2">
                                    <extrude>0</extrude>
                                    <altitudeMode>relativeToGround</altitudeMode>
                                    <coordinates>-105.815536,37.833063,152.399999768352 </coordinates>
                              </Point>
                        </Placemark>
                        <Placemark>
                              <name>VR413 E</name>
                              <Snippet />
                              <description />
                              <visibility>1</visibility>
                              <styleUrl>#White Route</styleUrl>
                              <Point id="VR413 E">
                                    <extrude>0</extrude>
                                    <altitudeMode>relativeToGround</altitudeMode>
                                    <coordinates>-105.596667,37.488333,152.399999768352 </coordinates>
                              </Point>
                        </Placemark>
                        <Placemark>
                              <name>VR413 F</name>
                              <Snippet />
                              <description />
                              <visibility>1</visibility>
                              <styleUrl>#White Route</styleUrl>
                              <Point id="VR413 F">
                                    <extrude>0</extrude>
                                    <altitudeMode>relativeToGround</altitudeMode>
                                    <coordinates>-105.2,37.6,152.399999768352 </coordinates>
                              </Point>
                        </Placemark>
                        <Placemark>
                              <name>VR413 G</name>
                              <Snippet />
                              <description />
                              <visibility>1</visibility>
                              <styleUrl>#White Route</styleUrl>
                              <Point id="VR413 G">
                                    <extrude>0</extrude>
                                    <altitudeMode>relativeToGround</altitudeMode>
                                    <coordinates>-104.95,37.733334,152.399999768352 </coordinates>
                              </Point>
                        </Placemark>
                        <Placemark>
                              <name>VR413 H</name>
                              <Snippet />
                              <description />
                              <visibility>1</visibility>
                              <styleUrl>#White Route</styleUrl>
                              <Point id="VR413 H">
                                    <extrude>0</extrude>
                                    <altitudeMode>relativeToGround</altitudeMode>
                                    <coordinates>-104.616667,37.933334,152.399999768352 </coordinates>
                              </Point>
                        </Placemark>
                  </Folder>
                  <Folder>
                        <name>VR413 Corridor</name>
                        <description />
                        <Snippet>Low Level Corridor</Snippet>
                        <visibility>1</visibility>
                        <Placemark>
                              <name>Complete Route</name>
                              <styleUrl>#Green Airspace/Corridor</styleUrl>
                              <LineString id="VR413 Corridor - Full Path">
                                    <extrude>1</extrude>
                                    <altitudeMode>clampToGround</altitudeMode>
                                    <tessellate>1</tessellate>
                                    <coordinates>-104.945785658947,39.16152442186,152.399999768352 -105.501236563134,38.9419242600671,152.399999768352 -105.511051759835,38.9358570261265,152.399999768352 -105.520420811231,38.9274303123202,152.399999768352 -106.087025348033,38.3272797550335,152.399999768352 -106.092825236992,38.3188530412272,152.399999768352 -106.096394399429,38.3080668475551,152.399999768352 -106.0740871342,37.9239772322627,152.399999768352 -106.072748698287,37.9158875870086,152.399999768352 -106.067841099937,37.9077979417545,152.399999768352 -106.062933501586,37.9000453650527,152.399999768352 -106.054010595495,37.8912815826941,152.399999768352 -105.863506550444,37.7970709223394,152.399999768352 -105.648464513642,37.4611821100191,152.399999768352 -105.636864735723,37.4500588477948,152.399999768352 -105.625711103109,37.443654545302,152.399999768352 -105.615895906409,37.4406209283317,152.399999768352 -105.60429612849,37.4382614484659,152.399999768352 -105.592696350571,37.4382614484659,152.399999768352 -105.583327299175,37.4396097226749,152.399999768352 -105.170196747145,37.5557298389261,152.399999768352 -104.89626353014,37.7025231934324,152.399999768352 -104.578608073287,37.8933039940076,152.399999768352 -104.655791210977,37.9715038981304,152.399999768352 -104.981477283312,37.7765097406519,152.399999768352 -105.228641782043,37.6455586081016,152.399999768352 -105.565035341688,37.5503367420901,152.399999768352 -105.761339275698,37.8597656730584,152.399999768352 -105.771154472398,37.868529455417,152.399999768352 -105.782308105013,37.8749337579098,152.399999768352 -105.950504884835,37.959032361697,152.399999768352 -105.968350697018,38.2861573916586,152.399999768352 -105.814430566942,38.4543545992329,152.399999768352 -105.424945716053,38.860690738974,152.399999768352 -104.888232914657,39.072369789789,152.399999768352 </coordinates>
                              </LineString>
                        </Placemark>
                  </Folder>
            </Folder>
            <Folder>
                  <name>Local Points</name>
                  <Snippet>FalconView Local Point File</Snippet>
                  <description />
                  <visibility>1</visibility>
                  <Folder>
                        <name>Default</name>
                        <Snippet />
                        <description />
                        <visibility>1</visibility>
                        <Placemark>
                              <name>Patrol Boat</name>
                              <Snippet> </Snippet>
                              <description>&lt;b&gt;DESCRIPTION: &lt;/b&gt; &lt;br&gt;&lt;b&gt;DTD ID: &lt;/b&gt; &lt;br&gt;&lt;b&gt;COMMENT: &lt;/b&gt; &lt;br&gt;&lt;b&gt;ELEVATION: &lt;/b&gt;-1&lt;br&gt;&lt;b&gt;ELEVATION SOURCE: &lt;/b&gt;UNK&lt;br&gt;&lt;b&gt;HORZ ACCURACY: &lt;/b&gt;-1&lt;br&gt;&lt;b&gt;VERT ACCURACY: &lt;/b&gt;-1&lt;br&gt;&lt;b&gt;POINT QUALITY: &lt;/b&gt;0&lt;br&gt;&lt;b&gt;AREA: &lt;/b&gt; &lt;br&gt;&lt;b&gt;COUNTRY CODE: &lt;/b&gt; &lt;br&gt;&lt;b&gt;GROUP: &lt;/b&gt;Default&lt;br&gt;&lt;b&gt;LINK: &lt;/b&gt; &lt;br&gt;</description>
                              <visibility>1</visibility>
                              <Style>
                                    <IconStyle>
                                          <Icon>
                                                <href>C:\PFPS\falcon\data\icons\localpnt\boat 1.ico</href>
                                          </Icon>
                                          <scale>0.8</scale>
                                          <color>ffffffff</color>
                                    </IconStyle>
                                    <LineStyle>
                                          <color>ff008000</color>
                                          <width>1</width>
                                    </LineStyle>
                                    <PolyStyle>
                                          <color>7f006400</color>
                                          <fill>1</fill>
                                    </PolyStyle>
                                    <LabelStyle>
                                          <color>ffffffff</color>
                                          <scale>1</scale>
                                    </LabelStyle>
                              </Style>
                              <Point id="Patrol Boat">
                                    <extrude>1</extrude>
                                    <altitudeMode>clampToGround</altitudeMode>
                                    <coordinates>-81.8567047119141,35.7431030273438,152.399999768352 </coordinates>
                              </Point>
                        </Placemark>
                        <Placemark>
                              <name>Patrol Boat2</name>
                              <Snippet> </Snippet>
                              <description>&lt;b&gt;DESCRIPTION: &lt;/b&gt; &lt;br&gt;&lt;b&gt;DTD ID: &lt;/b&gt; &lt;br&gt;&lt;b&gt;COMMENT: &lt;/b&gt; &lt;br&gt;&lt;b&gt;ELEVATION: &lt;/b&gt;-1&lt;br&gt;&lt;b&gt;ELEVATION SOURCE: &lt;/b&gt;UNK&lt;br&gt;&lt;b&gt;HORZ ACCURACY: &lt;/b&gt;-1&lt;br&gt;&lt;b&gt;VERT ACCURACY: &lt;/b&gt;-1&lt;br&gt;&lt;b&gt;POINT QUALITY: &lt;/b&gt;0&lt;br&gt;&lt;b&gt;AREA: &lt;/b&gt; &lt;br&gt;&lt;b&gt;COUNTRY CODE: &lt;/b&gt; &lt;br&gt;&lt;b&gt;GROUP: &lt;/b&gt;Default&lt;br&gt;&lt;b&gt;LINK: &lt;/b&gt; &lt;br&gt;</description>
                              <visibility>1</visibility>
                              <Style>
                                    <IconStyle>
                                          <Icon>
                                                <href>C:\PFPS\falcon\data\icons\localpnt\boat 1.ico</href>
                                          </Icon>
                                          <scale>0.8</scale>
                                          <color>ffffffff</color>
                                    </IconStyle>
                                    <LineStyle>
                                          <color>ff008000</color>
                                          <width>1</width>
                                    </LineStyle>
                                    <PolyStyle>
                                          <color>7f006400</color>
                                          <fill>1</fill>
                                    </PolyStyle>
                                    <LabelStyle>
                                          <color>ffffffff</color>
                                          <scale>1</scale>
                                    </LabelStyle>
                              </Style>
                              <Point id="Patrol Boat2">
                                    <extrude>1</extrude>
                                    <altitudeMode>clampToGround</altitudeMode>
                                    <coordinates>-81.9619903564453,35.7417526245117,152.399999768352 </coordinates>
                              </Point>
                        </Placemark>
                        <Placemark>
                              <name>F-15 Escort</name>
                              <Snippet> </Snippet>
                              <description>&lt;b&gt;DESCRIPTION: &lt;/b&gt; &lt;br&gt;&lt;b&gt;DTD ID: &lt;/b&gt; &lt;br&gt;&lt;b&gt;COMMENT: &lt;/b&gt; &lt;br&gt;&lt;b&gt;ELEVATION: &lt;/b&gt;-1&lt;br&gt;&lt;b&gt;ELEVATION SOURCE: &lt;/b&gt;UNK&lt;br&gt;&lt;b&gt;HORZ ACCURACY: &lt;/b&gt;-1&lt;br&gt;&lt;b&gt;VERT ACCURACY: &lt;/b&gt;-1&lt;br&gt;&lt;b&gt;POINT QUALITY: &lt;/b&gt;0&lt;br&gt;&lt;b&gt;AREA: &lt;/b&gt; &lt;br&gt;&lt;b&gt;COUNTRY CODE: &lt;/b&gt; &lt;br&gt;&lt;b&gt;GROUP: &lt;/b&gt;Default&lt;br&gt;&lt;b&gt;LINK: &lt;/b&gt; &lt;br&gt;</description>
                              <visibility>1</visibility>
                              <Style>
                                    <IconStyle>
                                          <Icon>
                                                <href>C:\PFPS\falcon\data\icons\localpnt\F-15.ico</href>
                                          </Icon>
                                          <scale>0.8</scale>
                                          <color>ffffffff</color>
                                    </IconStyle>
                                    <LineStyle>
                                          <color>ff008000</color>
                                          <width>1</width>
                                    </LineStyle>
                                    <PolyStyle>
                                          <color>7f006400</color>
                                          <fill>1</fill>
                                    </PolyStyle>
                                    <LabelStyle>
                                          <color>ffffffff</color>
                                          <scale>1</scale>
                                    </LabelStyle>
                              </Style>
                              <Point id="F-15 Escort">
                                    <extrude>1</extrude>
                                    <altitudeMode>clampToGround</altitudeMode>
                                    <coordinates>-81.8754425048828,35.6007232666016,152.399999768352 </coordinates>
                              </Point>
                        </Placemark>
                        <Placemark>
                              <name>Vehicle</name>
                              <Snippet> </Snippet>
                              <description>&lt;b&gt;DESCRIPTION: &lt;/b&gt; &lt;br&gt;&lt;b&gt;DTD ID: &lt;/b&gt; &lt;br&gt;&lt;b&gt;COMMENT: &lt;/b&gt; &lt;br&gt;&lt;b&gt;ELEVATION: &lt;/b&gt;-1&lt;br&gt;&lt;b&gt;ELEVATION SOURCE: &lt;/b&gt;UNK&lt;br&gt;&lt;b&gt;HORZ ACCURACY: &lt;/b&gt;-1&lt;br&gt;&lt;b&gt;VERT ACCURACY: &lt;/b&gt;-1&lt;br&gt;&lt;b&gt;POINT QUALITY: &lt;/b&gt;0&lt;br&gt;&lt;b&gt;AREA: &lt;/b&gt; &lt;br&gt;&lt;b&gt;COUNTRY CODE: &lt;/b&gt; &lt;br&gt;&lt;b&gt;GROUP: &lt;/b&gt;Default&lt;br&gt;&lt;b&gt;LINK: &lt;/b&gt; &lt;br&gt;</description>
                              <visibility>1</visibility>
                              <Style>
                                    <IconStyle>
                                          <Icon>
                                                <href>C:\PFPS\falcon\data\icons\localpnt\GndMotor.ico</href>
                                          </Icon>
                                          <scale>0.8</scale>
                                          <color>ffffffff</color>
                                    </IconStyle>
                                    <LineStyle>
                                          <color>ff008000</color>
                                          <width>1</width>
                                    </LineStyle>
                                    <PolyStyle>
                                          <color>7f006400</color>
                                          <fill>1</fill>
                                    </PolyStyle>
                                    <LabelStyle>
                                          <color>ffffffff</color>
                                          <scale>1</scale>
                                    </LabelStyle>
                              </Style>
                              <Point id="Vehicle">
                                    <extrude>1</extrude>
                                    <altitudeMode>clampToGround</altitudeMode>
                                    <coordinates>-81.8317184448242,35.6897926330566,152.399999768352 </coordinates>
                              </Point>
                        </Placemark>
                        <Placemark>
                              <name>Patrol Boat</name>
                              <Snippet> </Snippet>
                              <description>&lt;b&gt;DESCRIPTION: &lt;/b&gt; &lt;br&gt;&lt;b&gt;DTD ID: &lt;/b&gt; &lt;br&gt;&lt;b&gt;COMMENT: &lt;/b&gt; &lt;br&gt;&lt;b&gt;ELEVATION: &lt;/b&gt;-1&lt;br&gt;&lt;b&gt;ELEVATION SOURCE: &lt;/b&gt;UNK&lt;br&gt;&lt;b&gt;HORZ ACCURACY: &lt;/b&gt;-1&lt;br&gt;&lt;b&gt;VERT ACCURACY: &lt;/b&gt;-1&lt;br&gt;&lt;b&gt;POINT QUALITY: &lt;/b&gt;0&lt;br&gt;&lt;b&gt;AREA: &lt;/b&gt; &lt;br&gt;&lt;b&gt;COUNTRY CODE: &lt;/b&gt; &lt;br&gt;&lt;b&gt;GROUP: &lt;/b&gt;Default&lt;br&gt;&lt;b&gt;LINK: &lt;/b&gt; &lt;br&gt;</description>
                              <visibility>1</visibility>
                              <Style>
                                    <IconStyle>
                                          <Icon>
                                                <href>C:\PFPS\falcon\data\icons\localpnt\boat 1.ico</href>
                                          </Icon>
                                          <scale>0.8</scale>
                                          <color>ffffffff</color>
                                    </IconStyle>
                                    <LineStyle>
                                          <color>ff008000</color>
                                          <width>1</width>
                                    </LineStyle>
                                    <PolyStyle>
                                          <color>7f006400</color>
                                          <fill>1</fill>
                                    </PolyStyle>
                                    <LabelStyle>
                                          <color>ffffffff</color>
                                          <scale>1</scale>
                                    </LabelStyle>
                              </Style>
                              <Point id="Patrol Boat">
                                    <extrude>1</extrude>
                                    <altitudeMode>clampToGround</altitudeMode>
                                    <coordinates>-105.506591796875,38.9242286682129,152.399999768352 </coordinates>
                              </Point>
                        </Placemark>
                        <Placemark>
                              <name>F-15E Escort</name>
                              <Snippet> </Snippet>
                              <description>&lt;b&gt;DESCRIPTION: &lt;/b&gt; &lt;br&gt;&lt;b&gt;DTD ID: &lt;/b&gt; &lt;br&gt;&lt;b&gt;COMMENT: &lt;/b&gt; &lt;br&gt;&lt;b&gt;ELEVATION: &lt;/b&gt;-1&lt;br&gt;&lt;b&gt;ELEVATION SOURCE: &lt;/b&gt;UNK&lt;br&gt;&lt;b&gt;HORZ ACCURACY: &lt;/b&gt;-1&lt;br&gt;&lt;b&gt;VERT ACCURACY: &lt;/b&gt;-1&lt;br&gt;&lt;b&gt;POINT QUALITY: &lt;/b&gt;0&lt;br&gt;&lt;b&gt;AREA: &lt;/b&gt; &lt;br&gt;&lt;b&gt;COUNTRY CODE: &lt;/b&gt; &lt;br&gt;&lt;b&gt;GROUP: &lt;/b&gt;Default&lt;br&gt;&lt;b&gt;LINK: &lt;/b&gt; &lt;br&gt;</description>
                              <visibility>1</visibility>
                              <Style>
                                    <IconStyle>
                                          <Icon>
                                                <href>C:\PFPS\falcon\data\icons\localpnt\F-15.ico</href>
                                          </Icon>
                                          <scale>0.8</scale>
                                          <color>ffffffff</color>
                                    </IconStyle>
                                    <LineStyle>
                                          <color>ff008000</color>
                                          <width>1</width>
                                    </LineStyle>
                                    <PolyStyle>
                                          <color>7f006400</color>
                                          <fill>1</fill>
                                    </PolyStyle>
                                    <LabelStyle>
                                          <color>ffffffff</color>
                                          <scale>1</scale>
                                    </LabelStyle>
                              </Style>
                              <Point id="F-15E Escort">
                                    <extrude>1</extrude>
                                    <altitudeMode>clampToGround</altitudeMode>
                                    <coordinates>-105.383903503418,38.8352432250977,152.399999768352 </coordinates>
                              </Point>
                        </Placemark>
                        <Placemark>
                              <name>Convoy Route</name>
                              <Snippet> </Snippet>
                              <description>&lt;b&gt;DESCRIPTION: &lt;/b&gt; &lt;br&gt;&lt;b&gt;DTD ID: &lt;/b&gt; &lt;br&gt;&lt;b&gt;COMMENT: &lt;/b&gt; &lt;br&gt;&lt;b&gt;ELEVATION: &lt;/b&gt;-1&lt;br&gt;&lt;b&gt;ELEVATION SOURCE: &lt;/b&gt;UNK&lt;br&gt;&lt;b&gt;HORZ ACCURACY: &lt;/b&gt;-1&lt;br&gt;&lt;b&gt;VERT ACCURACY: &lt;/b&gt;-1&lt;br&gt;&lt;b&gt;POINT QUALITY: &lt;/b&gt;0&lt;br&gt;&lt;b&gt;AREA: &lt;/b&gt; &lt;br&gt;&lt;b&gt;COUNTRY CODE: &lt;/b&gt; &lt;br&gt;&lt;b&gt;GROUP: &lt;/b&gt;Default&lt;br&gt;&lt;b&gt;LINK: &lt;/b&gt; &lt;br&gt;</description>
                              <visibility>1</visibility>
                              <Style>
                                    <IconStyle>
                                          <Icon>
                                                <href>C:\PFPS\falcon\data\icons\localpnt\GndMotor.ico</href>
                                          </Icon>
                                          <scale>0.8</scale>
                                          <color>ffffffff</color>
                                    </IconStyle>
                                    <LineStyle>
                                          <color>ff008000</color>
                                          <width>1</width>
                                    </LineStyle>
                                    <PolyStyle>
                                          <color>7f006400</color>
                                          <fill>1</fill>
                                    </PolyStyle>
                                    <LabelStyle>
                                          <color>ffffffff</color>
                                          <scale>1</scale>
                                    </LabelStyle>
                              </Style>
                              <Point id="Convoy Route">
                                    <extrude>1</extrude>
                                    <altitudeMode>clampToGround</altitudeMode>
                                    <coordinates>-105.353561401367,38.9757995605469,152.399999768352 </coordinates>
                              </Point>
                        </Placemark>
                        <Placemark>
                              <name>Insurgent Activity</name>
                              <Snippet> </Snippet>
                              <description>&lt;b&gt;DESCRIPTION: &lt;/b&gt; &lt;br&gt;&lt;b&gt;DTD ID: &lt;/b&gt; &lt;br&gt;&lt;b&gt;COMMENT: &lt;/b&gt; &lt;br&gt;&lt;b&gt;ELEVATION: &lt;/b&gt;-1&lt;br&gt;&lt;b&gt;ELEVATION SOURCE: &lt;/b&gt;UNK&lt;br&gt;&lt;b&gt;HORZ ACCURACY: &lt;/b&gt;-1&lt;br&gt;&lt;b&gt;VERT ACCURACY: &lt;/b&gt;-1&lt;br&gt;&lt;b&gt;POINT QUALITY: &lt;/b&gt;0&lt;br&gt;&lt;b&gt;AREA: &lt;/b&gt; &lt;br&gt;&lt;b&gt;COUNTRY CODE: &lt;/b&gt; &lt;br&gt;&lt;b&gt;GROUP: &lt;/b&gt;Default&lt;br&gt;&lt;b&gt;LINK: &lt;/b&gt; &lt;br&gt;</description>
                              <visibility>1</visibility>
                              <Style>
                                    <IconStyle>
                                          <Icon>
                                                <href>C:\PFPS\falcon\data\icons\localpnt\gray GndFoot.ico</href>
                                          </Icon>
                                          <scale>0.8</scale>
                                          <color>ffffffff</color>
                                    </IconStyle>
                                    <LineStyle>
                                          <color>ff008000</color>
                                          <width>1</width>
                                    </LineStyle>
                                    <PolyStyle>
                                          <color>7f006400</color>
                                          <fill>1</fill>
                                    </PolyStyle>
                                    <LabelStyle>
                                          <color>ffffffff</color>
                                          <scale>1</scale>
                                    </LabelStyle>
                              </Style>
                              <Point id="Insurgent Activity">
                                    <extrude>1</extrude>
                                    <altitudeMode>clampToGround</altitudeMode>
                                    <coordinates>-105.416023254395,38.9559135437012,152.399999768352 </coordinates>
                              </Point>
                        </Placemark>
                        <Placemark>
                              <name>Insurgent Activity</name>
                              <Snippet> </Snippet>
                              <description>&lt;b&gt;DESCRIPTION: &lt;/b&gt; &lt;br&gt;&lt;b&gt;DTD ID: &lt;/b&gt; &lt;br&gt;&lt;b&gt;COMMENT: &lt;/b&gt; &lt;br&gt;&lt;b&gt;ELEVATION: &lt;/b&gt;-1&lt;br&gt;&lt;b&gt;ELEVATION SOURCE: &lt;/b&gt;UNK&lt;br&gt;&lt;b&gt;HORZ ACCURACY: &lt;/b&gt;-1&lt;br&gt;&lt;b&gt;VERT ACCURACY: &lt;/b&gt;-1&lt;br&gt;&lt;b&gt;POINT QUALITY: &lt;/b&gt;0&lt;br&gt;&lt;b&gt;AREA: &lt;/b&gt; &lt;br&gt;&lt;b&gt;COUNTRY CODE: &lt;/b&gt; &lt;br&gt;&lt;b&gt;GROUP: &lt;/b&gt;Default&lt;br&gt;&lt;b&gt;LINK: &lt;/b&gt; &lt;br&gt;</description>
                              <visibility>1</visibility>
                              <Style>
                                    <IconStyle>
                                          <Icon>
                                                <href>C:\PFPS\falcon\data\icons\localpnt\gray GndFoot.ico</href>
                                          </Icon>
                                          <scale>0.8</scale>
                                          <color>ffffffff</color>
                                    </IconStyle>
                                    <LineStyle>
                                          <color>ff008000</color>
                                          <width>1</width>
                                    </LineStyle>
                                    <PolyStyle>
                                          <color>7f006400</color>
                                          <fill>1</fill>
                                    </PolyStyle>
                                    <LabelStyle>
                                          <color>ffffffff</color>
                                          <scale>1</scale>
                                    </LabelStyle>
                              </Style>
                              <Point id="Insurgent Activity">
                                    <extrude>1</extrude>
                                    <altitudeMode>clampToGround</altitudeMode>
                                    <coordinates>-105.452606201172,38.932991027832,152.399999768352 </coordinates>
                              </Point>
                        </Placemark>
                  </Folder>
            </Folder>
            <Folder>
                  <name>Threats</name>
                  <Snippet>FalconView Threat File</Snippet>
                  <description />
                  <visibility>1</visibility>
                  <Folder>
                        <name>ZSU-23</name>
                        <Snippet />
                        <description>&lt;b&gt;APPROVED NICKNAME: &lt;/b&gt;LAA (1NM)&lt;br&gt;&lt;b&gt;CORRELATION CODE: &lt;/b&gt;101019005&lt;br&gt;&lt;b&gt;INFORMATION: &lt;/b&gt;Air Defense Gun Light&lt;br&gt;&lt;b&gt;MILSTD ID: &lt;/b&gt;SUGPEWAL----WWG&lt;br&gt;&lt;b&gt;OB TYPE: &lt;/b&gt;0&lt;br&gt;&lt;b&gt;OFFICIAL NAME: &lt;/b&gt;Air Defense Gun Light (TAE01)&lt;br&gt;&lt;br&gt;</description>
                        <visibility>1</visibility>
                        <Placemark>
                              <name>ZSU-23</name>
                              <Snippet />
                              <description>&lt;b&gt;APPROVED NICKNAME: &lt;/b&gt;LAA (1NM)&lt;br&gt;&lt;b&gt;CORRELATION CODE: &lt;/b&gt;101019005&lt;br&gt;&lt;b&gt;INFORMATION: &lt;/b&gt;Air Defense Gun Light&lt;br&gt;&lt;b&gt;MILSTD ID: &lt;/b&gt;SUGPEWAL----WWG&lt;br&gt;&lt;b&gt;OB TYPE: &lt;/b&gt;0&lt;br&gt;&lt;b&gt;OFFICIAL NAME: &lt;/b&gt;Air Defense Gun Light (TAE01)&lt;br&gt;&lt;br&gt;&lt;br&gt;&lt;br&gt;&lt;b&gt;DETECTION RANGE: &lt;/b&gt;0 NM&lt;br&gt;&lt;b&gt;DETECTION CEILING: &lt;/b&gt;0 MSL&lt;br&gt;&lt;br&gt;&lt;b&gt;ENGAGEMENT RANGE: &lt;/b&gt;3 NM&lt;br&gt;&lt;b&gt;ENGAGEMENT CEILING: &lt;/b&gt;5000 AGL&lt;br&gt;&lt;br&gt;</description>
                              <visibility>1</visibility>
                              <Style>
                                    <IconStyle>
                                          <Icon>
                                                <href>C:\PFPS\falcon\data\icons\threat\Aaa\AAA_Light.ico</href>
                                          </Icon>
                                          <scale>1</scale>
                                          <color>ffffffff</color>
                                    </IconStyle>
                                    <LineStyle>
                                          <color>ff0000ff</color>
                                          <width>1</width>
                                    </LineStyle>
                                    <PolyStyle>
                                          <color>7f00008b</color>
                                          <fill>1</fill>
                                    </PolyStyle>
                                    <LabelStyle>
                                          <color>ffffffff</color>
                                          <scale>1</scale>
                                    </LabelStyle>
                              </Style>
                              <Point id="ZSU-23">
                                    <extrude>1</extrude>
                                    <altitudeMode>relativeToGround</altitudeMode>
                                    <coordinates>-105.567266068211,38.8145123473153,152.399999768352 </coordinates>
                              </Point>
                        </Placemark>
                        <Placemark>
                              <name>Probability Ellipse</name>
                              <Snippet />
                              <description>Probability Ellipse</description>
                              <visibility>1</visibility>
                              <Style>
                                    <IconStyle>
                                          <Icon>
                                                <href>C:\PFPS\falcon\data\icons\threat\Aaa\AAA_Light.ico</href>
                                          </Icon>
                                          <scale>1</scale>
                                          <color>ffffffff</color>
                                    </IconStyle>
                                    <LineStyle>
                                          <color>ffff0000</color>
                                          <width>1</width>
                                    </LineStyle>
                                    <PolyStyle>
                                          <color>7f8b0000</color>
                                          <fill>1</fill>
                                    </PolyStyle>
                                    <LabelStyle>
                                          <color>ffffffff</color>
                                          <scale>1</scale>
                                    </LabelStyle>
                              </Style>
                              <Polygon id="Probability Ellipse">
                                    <extrude>1</extrude>
                                    <altitudeMode>clampToGround</altitudeMode>
                                    <tessellate>1</tessellate>
                                    <outerBoundaryIs>
                                          <LinearRing>
                                                <coordinates>-105.545876038734,38.8433798607748,457.199999305056 -105.533340083753,38.8371556945151,457.199999305056 -105.521834417184,38.8302432807274,457.199999305056 -105.511708162062,38.822852437804,457.199999305056 -105.503268650172,38.8152075756073,457.199999305056 -105.496772126078,38.8075408958525,457.199999305056 -105.49241598365,38.800085346847,457.199999305056 -105.490332768277,38.7930675454413,457.199999305056 -105.49058612703,38.7867008812622,457.199999305056 -105.493168832551,38.781179013982,457.199999305056 -105.498002945828,38.7766699635027,457.199999305056 -105.504942119762,38.7733109757105,457.199999305056 -105.513775981339,38.7712043233073,457.199999305056 -105.524236467027,38.7704141728078,457.199999305056 -105.536005925722,38.7709646159666,457.199999305056 -105.548726748105,38.7728389277241,457.199999305056 -105.562012232491,38.7759800744222,457.199999305056 -105.575458357007,38.7802924568378,457.199999305056 -105.588656097688,38.7856448338558,457.199999305056 -105.601203913147,38.7918743356627,457.199999305056 -105.612720009646,38.7987914414519,457.199999305056 -105.622854006146,38.8061857669065,457.199999305056 -105.631297637138,38.8138324821195,457.199999305056 -105.637794161232,38.8214991618744,457.199999305056 -105.642146184559,38.8289528578639,457.199999305056 -105.644221658554,38.8359671767385,457.199999305056 -105.643957869871,38.8423291489159,457.199999305056 -105.64136330387,38.8478456806487,457.199999305056 -105.636517330113,38.8523493955805,457.199999305056 -105.629567726249,38.8557036913711,457.199999305056 -105.620726123294,38.8578068612431,457.199999305056 -105.610261518506,38.8585951587266,457.199999305056 -105.598492059811,38.858044715568,457.199999305056 -105.585775356529,38.8561722568267,457.199999305056 -105.572497613521,38.8530345926598,457.199999305056 -105.559061918936,38.8487269022457,457.199999305056 -105.545876038734,38.8433798607748,457.199999305056 </coordinates>
                                          </LinearRing>
                                    </outerBoundaryIs>
                              </Polygon>
                        </Placemark>
                        <Placemark>
                              <name>Engagement Ring</name>
                              <Snippet />
                              <description>Engagement Ring</description>
                              <visibility>1</visibility>
                              <Style>
                                    <IconStyle>
                                          <Icon>
                                                <href>C:\PFPS\falcon\data\icons\threat\Aaa\AAA_Light.ico</href>
                                          </Icon>
                                          <scale>1</scale>
                                          <color>ffffffff</color>
                                    </IconStyle>
                                    <LineStyle>
                                          <color>ff0000ff</color>
                                          <width>1</width>
                                    </LineStyle>
                                    <PolyStyle>
                                          <color>7f00008b</color>
                                          <fill>1</fill>
                                    </PolyStyle>
                                    <LabelStyle>
                                          <color>ffffffff</color>
                                          <scale>1</scale>
                                    </LabelStyle>
                              </Style>
                              <Polygon id="Engagement Ring">
                                    <extrude>1</extrude>
                                    <altitudeMode>relativeToGround</altitudeMode>
                                    <tessellate>1</tessellate>
                                    <outerBoundaryIs>
                                          <LinearRing>
                                                <coordinates>-105.567266068211,38.8645123473153,1523.99999768352 -105.556123049294,38.8637527349659,1523.99999768352 -105.545318605368,38.8614969783546,1523.99999768352 -105.535181023995,38.8578136175046,1523.99999768352 -105.526018330455,38.8528145694713,1523.99999768352 -105.518108928554,38.8466517277997,1523.99999768352 -105.511693141466,38.8395123473153,1523.99999768352 -105.506965909637,38.8316133544816,1523.99999768352 -105.504070867612,38.8231947561987,1523.99999768352 -105.50309597978,38.8145123473153,1523.99999768352 -105.504070867612,38.805829938432,1523.99999768352 -105.506965909637,38.797411340149,1523.99999768352 -105.511693141466,38.7895123473153,1523.99999768352 -105.518108928554,38.782372966831,1523.99999768352 -105.526018330455,38.7762101251594,1523.99999768352 -105.535181023995,38.7712110771261,1523.99999768352 -105.545318605368,38.767527716276,1523.99999768352 -105.556123049294,38.7652719596647,1523.99999768352 -105.567266068211,38.7645123473153,1523.99999768352 -105.578409087127,38.7652719596647,1523.99999768352 -105.589213531053,38.767527716276,1523.99999768352 -105.599351112426,38.7712110771261,1523.99999768352 -105.608513805966,38.7762101251594,1523.99999768352 -105.616423207868,38.782372966831,1523.99999768352 -105.622838994955,38.7895123473153,1523.99999768352 -105.627566226784,38.797411340149,1523.99999768352 -105.630461268809,38.805829938432,1523.99999768352 -105.631436156642,38.8145123473153,1523.99999768352 -105.630461268809,38.8231947561987,1523.99999768352 -105.627566226784,38.8316133544816,1523.99999768352 -105.622838994955,38.8395123473153,1523.99999768352 -105.616423207868,38.8466517277997,1523.99999768352 -105.608513805966,38.8528145694713,1523.99999768352 -105.599351112426,38.8578136175046,1523.99999768352 -105.589213531053,38.8614969783546,1523.99999768352 -105.578409087127,38.8637527349659,1523.99999768352 -105.567266068211,38.8645123473153,1523.99999768352 </coordinates>
                                          </LinearRing>
                                    </outerBoundaryIs>
                              </Polygon>
                        </Placemark>
                  </Folder>
                  <Folder>
                        <name>SA-14</name>
                        <Snippet />
                        <description>&lt;b&gt;APPROVED NICKNAME: &lt;/b&gt;MP IR (3NM)&lt;br&gt;&lt;b&gt;CORRELATION CODE: &lt;/b&gt;1925199010&lt;br&gt;&lt;b&gt;INFORMATION: &lt;/b&gt;03NM MANPAD Msl Lchr (IR)&lt;br&gt;&lt;b&gt;MILSTD ID: &lt;/b&gt;SUGPEWMA----WWG&lt;br&gt;&lt;b&gt;OB TYPE: &lt;/b&gt;0&lt;br&gt;&lt;b&gt;OFFICIAL NAME: &lt;/b&gt;03NM MANPAD Msl Lchr (IR)&lt;br&gt;&lt;br&gt;</description>
                        <visibility>1</visibility>
                        <Placemark>
                              <name>SA-14</name>
                              <Snippet />
                              <description>&lt;b&gt;APPROVED NICKNAME: &lt;/b&gt;MP IR (3NM)&lt;br&gt;&lt;b&gt;CORRELATION CODE: &lt;/b&gt;1925199010&lt;br&gt;&lt;b&gt;INFORMATION: &lt;/b&gt;03NM MANPAD Msl Lchr (IR)&lt;br&gt;&lt;b&gt;MILSTD ID: &lt;/b&gt;SUGPEWMA----WWG&lt;br&gt;&lt;b&gt;OB TYPE: &lt;/b&gt;0&lt;br&gt;&lt;b&gt;OFFICIAL NAME: &lt;/b&gt;03NM MANPAD Msl Lchr (IR)&lt;br&gt;&lt;br&gt;&lt;br&gt;&lt;br&gt;&lt;b&gt;DETECTION RANGE: &lt;/b&gt;0 NM&lt;br&gt;&lt;b&gt;DETECTION CEILING: &lt;/b&gt;0 MSL&lt;br&gt;&lt;br&gt;&lt;b&gt;ENGAGEMENT RANGE: &lt;/b&gt;3 NM&lt;br&gt;&lt;b&gt;ENGAGEMENT CEILING: &lt;/b&gt;15000 AGL&lt;br&gt;&lt;br&gt;</description>
                              <visibility>1</visibility>
                              <Style>
                                    <IconStyle>
                                          <Icon>
                                                <href>C:\PFPS\falcon\data\icons\threat\Mob\System\MANPAD_03nm.ico</href>
                                          </Icon>
                                          <scale>1</scale>
                                          <color>ffffffff</color>
                                    </IconStyle>
                                    <LineStyle>
                                          <color>ff0000ff</color>
                                          <width>1</width>
                                    </LineStyle>
                                    <PolyStyle>
                                          <color>7f00008b</color>
                                          <fill>1</fill>
                                    </PolyStyle>
                                    <LabelStyle>
                                          <color>ffffffff</color>
                                          <scale>1</scale>
                                    </LabelStyle>
                              </Style>
                              <Point id="SA-14">
                                    <extrude>1</extrude>
                                    <altitudeMode>relativeToGround</altitudeMode>
                                    <coordinates>-105.648464513642,38.7878839316873,152.399999768352 </coordinates>
                              </Point>
                        </Placemark>
                        <Placemark>
                              <name>Engagement Ring</name>
                              <Snippet />
                              <description>Engagement Ring</description>
                              <visibility>1</visibility>
                              <Style>
                                    <IconStyle>
                                          <Icon>
                                                <href>C:\PFPS\falcon\data\icons\threat\Mob\System\MANPAD_03nm.ico</href>
                                          </Icon>
                                          <scale>1</scale>
                                          <color>ffffffff</color>
                                    </IconStyle>
                                    <LineStyle>
                                          <color>ff0000ff</color>
                                          <width>1</width>
                                    </LineStyle>
                                    <PolyStyle>
                                          <color>7f00008b</color>
                                          <fill>1</fill>
                                    </PolyStyle>
                                    <LabelStyle>
                                          <color>ffffffff</color>
                                          <scale>1</scale>
                                    </LabelStyle>
                              </Style>
                              <Polygon id="Engagement Ring">
                                    <extrude>1</extrude>
                                    <altitudeMode>relativeToGround</altitudeMode>
                                    <tessellate>1</tessellate>
                                    <outerBoundaryIs>
                                          <LinearRing>
                                                <coordinates>-105.648464513642,38.8378839316873,4571.99999305056 -105.637325657954,38.8371243193379,4571.99999305056 -105.626525250759,38.8348685627266,4571.99999305056 -105.616391456965,38.8311852018766,4571.99999305056 -105.607232186768,38.8261861538433,4571.99999305056 -105.599325739959,38.8200233121717,4571.99999305056 -105.592912349923,38.8128839316873,4571.99999305056 -105.588186884271,38.8049849388536,4571.99999305056 -105.585292923885,38.7965663405707,4571.99999305056 -105.584318400287,38.7878839316873,4571.99999305056 -105.585292923885,38.779201522804,4571.99999305056 -105.588186884271,38.7707829245211,4571.99999305056 -105.592912349923,38.7628839316873,4571.99999305056 -105.599325739959,38.755744551203,4571.99999305056 -105.607232186768,38.7495817095314,4571.99999305056 -105.616391456965,38.7445826614981,4571.99999305056 -105.626525250759,38.740899300648,4571.99999305056 -105.637325657954,38.7386435440367,4571.99999305056 -105.648464513642,38.7378839316873,4571.99999305056 -105.65960336933,38.7386435440367,4571.99999305056 -105.670403776525,38.740899300648,4571.99999305056 -105.680537570319,38.7445826614981,4571.99999305056 -105.689696840516,38.7495817095314,4571.99999305056 -105.697603287325,38.755744551203,4571.99999305056 -105.704016677361,38.7628839316873,4571.99999305056 -105.708742143013,38.7707829245211,4571.99999305056 -105.711636103399,38.779201522804,4571.99999305056 -105.712610626997,38.7878839316873,4571.99999305056 -105.711636103399,38.7965663405707,4571.99999305056 -105.708742143013,38.8049849388536,4571.99999305056 -105.704016677361,38.8128839316873,4571.99999305056 -105.697603287325,38.8200233121717,4571.99999305056 -105.689696840516,38.8261861538433,4571.99999305056 -105.680537570319,38.8311852018766,4571.99999305056 -105.670403776525,38.8348685627266,4571.99999305056 -105.65960336933,38.8371243193379,4571.99999305056 -105.648464513642,38.8378839316873,4571.99999305056 </coordinates>
                                          </LinearRing>
                                    </outerBoundaryIs>
                              </Polygon>
                        </Placemark>
                  </Folder>
            </Folder>
      </Document>
</kml>